#line 1 "E:/neovim-CSE2410/src/nvim/math.c"



#line 1 "C:\\Program Files (x86)\\Windows Kits\\10\\include\\10.0.18362.0\\ucrt\\math.h"










#line 1 "C:\\Program Files (x86)\\Windows Kits\\10\\include\\10.0.18362.0\\ucrt\\corecrt_math.h"







#pragma once



#line 1 "C:\\Program Files (x86)\\Windows Kits\\10\\include\\10.0.18362.0\\ucrt\\corecrt.h"







#pragma once

#line 1 "C:\\Program Files (x86)\\Microsoft Visual Studio\\2019\\Community\\VC\\Tools\\MSVC\\14.24.28314\\include\\vcruntime.h"







#pragma once






















#line 32 "C:\\Program Files (x86)\\Microsoft Visual Studio\\2019\\Community\\VC\\Tools\\MSVC\\14.24.28314\\include\\vcruntime.h"

#line 34 "C:\\Program Files (x86)\\Microsoft Visual Studio\\2019\\Community\\VC\\Tools\\MSVC\\14.24.28314\\include\\vcruntime.h"
#line 35 "C:\\Program Files (x86)\\Microsoft Visual Studio\\2019\\Community\\VC\\Tools\\MSVC\\14.24.28314\\include\\vcruntime.h"


    
#line 39 "C:\\Program Files (x86)\\Microsoft Visual Studio\\2019\\Community\\VC\\Tools\\MSVC\\14.24.28314\\include\\vcruntime.h"






    
    

#line 49 "C:\\Program Files (x86)\\Microsoft Visual Studio\\2019\\Community\\VC\\Tools\\MSVC\\14.24.28314\\include\\vcruntime.h"
        
            
        

#line 54 "C:\\Program Files (x86)\\Microsoft Visual Studio\\2019\\Community\\VC\\Tools\\MSVC\\14.24.28314\\include\\vcruntime.h"
    #line 55 "C:\\Program Files (x86)\\Microsoft Visual Studio\\2019\\Community\\VC\\Tools\\MSVC\\14.24.28314\\include\\vcruntime.h"
#line 56 "C:\\Program Files (x86)\\Microsoft Visual Studio\\2019\\Community\\VC\\Tools\\MSVC\\14.24.28314\\include\\vcruntime.h"

#line 1 "C:\\Program Files (x86)\\Microsoft Visual Studio\\2019\\Community\\VC\\Tools\\MSVC\\14.24.28314\\include\\sal.h"













#pragma once







































































































































#line 151 "C:\\Program Files (x86)\\Microsoft Visual Studio\\2019\\Community\\VC\\Tools\\MSVC\\14.24.28314\\include\\sal.h"



#line 155 "C:\\Program Files (x86)\\Microsoft Visual Studio\\2019\\Community\\VC\\Tools\\MSVC\\14.24.28314\\include\\sal.h"





























#line 185 "C:\\Program Files (x86)\\Microsoft Visual Studio\\2019\\Community\\VC\\Tools\\MSVC\\14.24.28314\\include\\sal.h"


#line 188 "C:\\Program Files (x86)\\Microsoft Visual Studio\\2019\\Community\\VC\\Tools\\MSVC\\14.24.28314\\include\\sal.h"

#line 190 "C:\\Program Files (x86)\\Microsoft Visual Studio\\2019\\Community\\VC\\Tools\\MSVC\\14.24.28314\\include\\sal.h"





#line 196 "C:\\Program Files (x86)\\Microsoft Visual Studio\\2019\\Community\\VC\\Tools\\MSVC\\14.24.28314\\include\\sal.h"



#line 200 "C:\\Program Files (x86)\\Microsoft Visual Studio\\2019\\Community\\VC\\Tools\\MSVC\\14.24.28314\\include\\sal.h"






#line 207 "C:\\Program Files (x86)\\Microsoft Visual Studio\\2019\\Community\\VC\\Tools\\MSVC\\14.24.28314\\include\\sal.h"











#line 219 "C:\\Program Files (x86)\\Microsoft Visual Studio\\2019\\Community\\VC\\Tools\\MSVC\\14.24.28314\\include\\sal.h"








#line 228 "C:\\Program Files (x86)\\Microsoft Visual Studio\\2019\\Community\\VC\\Tools\\MSVC\\14.24.28314\\include\\sal.h"
#line 229 "C:\\Program Files (x86)\\Microsoft Visual Studio\\2019\\Community\\VC\\Tools\\MSVC\\14.24.28314\\include\\sal.h"































































































































































































































































































































































































































































































#pragma region Input Buffer SAL 1 compatibility macros



























































































































































































































































































































































































































































































































































































































































































































































































#pragma endregion Input Buffer SAL 1 compatibility macros

















































































#line 1555 "C:\\Program Files (x86)\\Microsoft Visual Studio\\2019\\Community\\VC\\Tools\\MSVC\\14.24.28314\\include\\sal.h"






























#line 1586 "C:\\Program Files (x86)\\Microsoft Visual Studio\\2019\\Community\\VC\\Tools\\MSVC\\14.24.28314\\include\\sal.h"
























#line 1611 "C:\\Program Files (x86)\\Microsoft Visual Studio\\2019\\Community\\VC\\Tools\\MSVC\\14.24.28314\\include\\sal.h"












#line 1624 "C:\\Program Files (x86)\\Microsoft Visual Studio\\2019\\Community\\VC\\Tools\\MSVC\\14.24.28314\\include\\sal.h"






































#line 1663 "C:\\Program Files (x86)\\Microsoft Visual Studio\\2019\\Community\\VC\\Tools\\MSVC\\14.24.28314\\include\\sal.h"















































































































#line 1775 "C:\\Program Files (x86)\\Microsoft Visual Studio\\2019\\Community\\VC\\Tools\\MSVC\\14.24.28314\\include\\sal.h"






































































































#line 1878 "C:\\Program Files (x86)\\Microsoft Visual Studio\\2019\\Community\\VC\\Tools\\MSVC\\14.24.28314\\include\\sal.h"








































































































































































#line 2047 "C:\\Program Files (x86)\\Microsoft Visual Studio\\2019\\Community\\VC\\Tools\\MSVC\\14.24.28314\\include\\sal.h"





































































































#line 2149 "C:\\Program Files (x86)\\Microsoft Visual Studio\\2019\\Community\\VC\\Tools\\MSVC\\14.24.28314\\include\\sal.h"
























































































































































































































#line 2366 "C:\\Program Files (x86)\\Microsoft Visual Studio\\2019\\Community\\VC\\Tools\\MSVC\\14.24.28314\\include\\sal.h"
#line 2367 "C:\\Program Files (x86)\\Microsoft Visual Studio\\2019\\Community\\VC\\Tools\\MSVC\\14.24.28314\\include\\sal.h"



































































































































































































































#line 2595 "C:\\Program Files (x86)\\Microsoft Visual Studio\\2019\\Community\\VC\\Tools\\MSVC\\14.24.28314\\include\\sal.h"
    
    
    
    
    
    
    
    
    
    
    
    
    
    
    
    
    
    
    
    
    
    
    
    
    
    
    
    
    

    
    
    
    

    
    

#line 2634 "C:\\Program Files (x86)\\Microsoft Visual Studio\\2019\\Community\\VC\\Tools\\MSVC\\14.24.28314\\include\\sal.h"









































































































































































































































#line 2868 "C:\\Program Files (x86)\\Microsoft Visual Studio\\2019\\Community\\VC\\Tools\\MSVC\\14.24.28314\\include\\sal.h"









#line 2878 "C:\\Program Files (x86)\\Microsoft Visual Studio\\2019\\Community\\VC\\Tools\\MSVC\\14.24.28314\\include\\sal.h"


    
    
#line 2883 "C:\\Program Files (x86)\\Microsoft Visual Studio\\2019\\Community\\VC\\Tools\\MSVC\\14.24.28314\\include\\sal.h"






#line 2890 "C:\\Program Files (x86)\\Microsoft Visual Studio\\2019\\Community\\VC\\Tools\\MSVC\\14.24.28314\\include\\sal.h"
#line 2891 "C:\\Program Files (x86)\\Microsoft Visual Studio\\2019\\Community\\VC\\Tools\\MSVC\\14.24.28314\\include\\sal.h"






#line 2898 "C:\\Program Files (x86)\\Microsoft Visual Studio\\2019\\Community\\VC\\Tools\\MSVC\\14.24.28314\\include\\sal.h"
#line 2899 "C:\\Program Files (x86)\\Microsoft Visual Studio\\2019\\Community\\VC\\Tools\\MSVC\\14.24.28314\\include\\sal.h"











#line 2911 "C:\\Program Files (x86)\\Microsoft Visual Studio\\2019\\Community\\VC\\Tools\\MSVC\\14.24.28314\\include\\sal.h"

































#line 2945 "C:\\Program Files (x86)\\Microsoft Visual Studio\\2019\\Community\\VC\\Tools\\MSVC\\14.24.28314\\include\\sal.h"

























#line 1 "C:\\Program Files (x86)\\Microsoft Visual Studio\\2019\\Community\\VC\\Tools\\MSVC\\14.24.28314\\include\\concurrencysal.h"


















#pragma once















































































































































































































































































#line 292 "C:\\Program Files (x86)\\Microsoft Visual Studio\\2019\\Community\\VC\\Tools\\MSVC\\14.24.28314\\include\\concurrencysal.h"



#line 296 "C:\\Program Files (x86)\\Microsoft Visual Studio\\2019\\Community\\VC\\Tools\\MSVC\\14.24.28314\\include\\concurrencysal.h"




























































































#line 389 "C:\\Program Files (x86)\\Microsoft Visual Studio\\2019\\Community\\VC\\Tools\\MSVC\\14.24.28314\\include\\concurrencysal.h"





#line 395 "C:\\Program Files (x86)\\Microsoft Visual Studio\\2019\\Community\\VC\\Tools\\MSVC\\14.24.28314\\include\\concurrencysal.h"
#line 2971 "C:\\Program Files (x86)\\Microsoft Visual Studio\\2019\\Community\\VC\\Tools\\MSVC\\14.24.28314\\include\\sal.h"

#line 58 "C:\\Program Files (x86)\\Microsoft Visual Studio\\2019\\Community\\VC\\Tools\\MSVC\\14.24.28314\\include\\vcruntime.h"
#line 1 "C:\\Program Files (x86)\\Microsoft Visual Studio\\2019\\Community\\VC\\Tools\\MSVC\\14.24.28314\\include\\vadefs.h"










#pragma once



#pragma pack(push, 8)







#line 24 "C:\\Program Files (x86)\\Microsoft Visual Studio\\2019\\Community\\VC\\Tools\\MSVC\\14.24.28314\\include\\vadefs.h"


    
    


        typedef unsigned int uintptr_t;
    #line 32 "C:\\Program Files (x86)\\Microsoft Visual Studio\\2019\\Community\\VC\\Tools\\MSVC\\14.24.28314\\include\\vadefs.h"
#line 33 "C:\\Program Files (x86)\\Microsoft Visual Studio\\2019\\Community\\VC\\Tools\\MSVC\\14.24.28314\\include\\vadefs.h"


    
    


        typedef char* va_list;
    #line 41 "C:\\Program Files (x86)\\Microsoft Visual Studio\\2019\\Community\\VC\\Tools\\MSVC\\14.24.28314\\include\\vadefs.h"
#line 42 "C:\\Program Files (x86)\\Microsoft Visual Studio\\2019\\Community\\VC\\Tools\\MSVC\\14.24.28314\\include\\vadefs.h"




    
#line 48 "C:\\Program Files (x86)\\Microsoft Visual Studio\\2019\\Community\\VC\\Tools\\MSVC\\14.24.28314\\include\\vadefs.h"





#line 54 "C:\\Program Files (x86)\\Microsoft Visual Studio\\2019\\Community\\VC\\Tools\\MSVC\\14.24.28314\\include\\vadefs.h"



#line 58 "C:\\Program Files (x86)\\Microsoft Visual Studio\\2019\\Community\\VC\\Tools\\MSVC\\14.24.28314\\include\\vadefs.h"
    
    
#line 61 "C:\\Program Files (x86)\\Microsoft Visual Studio\\2019\\Community\\VC\\Tools\\MSVC\\14.24.28314\\include\\vadefs.h"











#line 73 "C:\\Program Files (x86)\\Microsoft Visual Studio\\2019\\Community\\VC\\Tools\\MSVC\\14.24.28314\\include\\vadefs.h"

    

    
    
    










































#line 122 "C:\\Program Files (x86)\\Microsoft Visual Studio\\2019\\Community\\VC\\Tools\\MSVC\\14.24.28314\\include\\vadefs.h"




































#line 159 "C:\\Program Files (x86)\\Microsoft Visual Studio\\2019\\Community\\VC\\Tools\\MSVC\\14.24.28314\\include\\vadefs.h"

    

#line 163 "C:\\Program Files (x86)\\Microsoft Visual Studio\\2019\\Community\\VC\\Tools\\MSVC\\14.24.28314\\include\\vadefs.h"

#pragma pack(pop)
#line 59 "C:\\Program Files (x86)\\Microsoft Visual Studio\\2019\\Community\\VC\\Tools\\MSVC\\14.24.28314\\include\\vcruntime.h"














#line 74 "C:\\Program Files (x86)\\Microsoft Visual Studio\\2019\\Community\\VC\\Tools\\MSVC\\14.24.28314\\include\\vcruntime.h"









#line 84 "C:\\Program Files (x86)\\Microsoft Visual Studio\\2019\\Community\\VC\\Tools\\MSVC\\14.24.28314\\include\\vcruntime.h"

    


    


#line 92 "C:\\Program Files (x86)\\Microsoft Visual Studio\\2019\\Community\\VC\\Tools\\MSVC\\14.24.28314\\include\\vcruntime.h"

__pragma(pack(push, 8))




    


        
    #line 103 "C:\\Program Files (x86)\\Microsoft Visual Studio\\2019\\Community\\VC\\Tools\\MSVC\\14.24.28314\\include\\vcruntime.h"
#line 104 "C:\\Program Files (x86)\\Microsoft Visual Studio\\2019\\Community\\VC\\Tools\\MSVC\\14.24.28314\\include\\vcruntime.h"
















    

#line 123 "C:\\Program Files (x86)\\Microsoft Visual Studio\\2019\\Community\\VC\\Tools\\MSVC\\14.24.28314\\include\\vcruntime.h"

#line 125 "C:\\Program Files (x86)\\Microsoft Visual Studio\\2019\\Community\\VC\\Tools\\MSVC\\14.24.28314\\include\\vcruntime.h"
        
    #line 127 "C:\\Program Files (x86)\\Microsoft Visual Studio\\2019\\Community\\VC\\Tools\\MSVC\\14.24.28314\\include\\vcruntime.h"
#line 128 "C:\\Program Files (x86)\\Microsoft Visual Studio\\2019\\Community\\VC\\Tools\\MSVC\\14.24.28314\\include\\vcruntime.h"


    

#line 133 "C:\\Program Files (x86)\\Microsoft Visual Studio\\2019\\Community\\VC\\Tools\\MSVC\\14.24.28314\\include\\vcruntime.h"
        
    #line 135 "C:\\Program Files (x86)\\Microsoft Visual Studio\\2019\\Community\\VC\\Tools\\MSVC\\14.24.28314\\include\\vcruntime.h"
#line 136 "C:\\Program Files (x86)\\Microsoft Visual Studio\\2019\\Community\\VC\\Tools\\MSVC\\14.24.28314\\include\\vcruntime.h"





#line 142 "C:\\Program Files (x86)\\Microsoft Visual Studio\\2019\\Community\\VC\\Tools\\MSVC\\14.24.28314\\include\\vcruntime.h"
    
    
#line 145 "C:\\Program Files (x86)\\Microsoft Visual Studio\\2019\\Community\\VC\\Tools\\MSVC\\14.24.28314\\include\\vcruntime.h"




    
#line 151 "C:\\Program Files (x86)\\Microsoft Visual Studio\\2019\\Community\\VC\\Tools\\MSVC\\14.24.28314\\include\\vcruntime.h"








    


#line 163 "C:\\Program Files (x86)\\Microsoft Visual Studio\\2019\\Community\\VC\\Tools\\MSVC\\14.24.28314\\include\\vcruntime.h"



#line 167 "C:\\Program Files (x86)\\Microsoft Visual Studio\\2019\\Community\\VC\\Tools\\MSVC\\14.24.28314\\include\\vcruntime.h"
    
#line 169 "C:\\Program Files (x86)\\Microsoft Visual Studio\\2019\\Community\\VC\\Tools\\MSVC\\14.24.28314\\include\\vcruntime.h"




    
#line 175 "C:\\Program Files (x86)\\Microsoft Visual Studio\\2019\\Community\\VC\\Tools\\MSVC\\14.24.28314\\include\\vcruntime.h"


    



      
    #line 183 "C:\\Program Files (x86)\\Microsoft Visual Studio\\2019\\Community\\VC\\Tools\\MSVC\\14.24.28314\\include\\vcruntime.h"
#line 184 "C:\\Program Files (x86)\\Microsoft Visual Studio\\2019\\Community\\VC\\Tools\\MSVC\\14.24.28314\\include\\vcruntime.h"










    typedef unsigned int     size_t;
    typedef int              ptrdiff_t;
    typedef int              intptr_t;
#line 198 "C:\\Program Files (x86)\\Microsoft Visual Studio\\2019\\Community\\VC\\Tools\\MSVC\\14.24.28314\\include\\vcruntime.h"



#line 202 "C:\\Program Files (x86)\\Microsoft Visual Studio\\2019\\Community\\VC\\Tools\\MSVC\\14.24.28314\\include\\vcruntime.h"



#line 206 "C:\\Program Files (x86)\\Microsoft Visual Studio\\2019\\Community\\VC\\Tools\\MSVC\\14.24.28314\\include\\vcruntime.h"
    typedef _Bool __vcrt_bool;
#line 208 "C:\\Program Files (x86)\\Microsoft Visual Studio\\2019\\Community\\VC\\Tools\\MSVC\\14.24.28314\\include\\vcruntime.h"



    
#line 213 "C:\\Program Files (x86)\\Microsoft Visual Studio\\2019\\Community\\VC\\Tools\\MSVC\\14.24.28314\\include\\vcruntime.h"


    
#line 217 "C:\\Program Files (x86)\\Microsoft Visual Studio\\2019\\Community\\VC\\Tools\\MSVC\\14.24.28314\\include\\vcruntime.h"


    
#line 221 "C:\\Program Files (x86)\\Microsoft Visual Studio\\2019\\Community\\VC\\Tools\\MSVC\\14.24.28314\\include\\vcruntime.h"



    
    typedef unsigned short wchar_t;
#line 227 "C:\\Program Files (x86)\\Microsoft Visual Studio\\2019\\Community\\VC\\Tools\\MSVC\\14.24.28314\\include\\vcruntime.h"


    


        
    #line 234 "C:\\Program Files (x86)\\Microsoft Visual Studio\\2019\\Community\\VC\\Tools\\MSVC\\14.24.28314\\include\\vcruntime.h"
#line 235 "C:\\Program Files (x86)\\Microsoft Visual Studio\\2019\\Community\\VC\\Tools\\MSVC\\14.24.28314\\include\\vcruntime.h"



#line 239 "C:\\Program Files (x86)\\Microsoft Visual Studio\\2019\\Community\\VC\\Tools\\MSVC\\14.24.28314\\include\\vcruntime.h"
    
#line 241 "C:\\Program Files (x86)\\Microsoft Visual Studio\\2019\\Community\\VC\\Tools\\MSVC\\14.24.28314\\include\\vcruntime.h"










    
#line 253 "C:\\Program Files (x86)\\Microsoft Visual Studio\\2019\\Community\\VC\\Tools\\MSVC\\14.24.28314\\include\\vcruntime.h"



#line 257 "C:\\Program Files (x86)\\Microsoft Visual Studio\\2019\\Community\\VC\\Tools\\MSVC\\14.24.28314\\include\\vcruntime.h"


    

#line 262 "C:\\Program Files (x86)\\Microsoft Visual Studio\\2019\\Community\\VC\\Tools\\MSVC\\14.24.28314\\include\\vcruntime.h"
        
    #line 264 "C:\\Program Files (x86)\\Microsoft Visual Studio\\2019\\Community\\VC\\Tools\\MSVC\\14.24.28314\\include\\vcruntime.h"

    


#line 269 "C:\\Program Files (x86)\\Microsoft Visual Studio\\2019\\Community\\VC\\Tools\\MSVC\\14.24.28314\\include\\vcruntime.h"


#line 272 "C:\\Program Files (x86)\\Microsoft Visual Studio\\2019\\Community\\VC\\Tools\\MSVC\\14.24.28314\\include\\vcruntime.h"
        
        
    #line 275 "C:\\Program Files (x86)\\Microsoft Visual Studio\\2019\\Community\\VC\\Tools\\MSVC\\14.24.28314\\include\\vcruntime.h"

    
#line 278 "C:\\Program Files (x86)\\Microsoft Visual Studio\\2019\\Community\\VC\\Tools\\MSVC\\14.24.28314\\include\\vcruntime.h"



#line 282 "C:\\Program Files (x86)\\Microsoft Visual Studio\\2019\\Community\\VC\\Tools\\MSVC\\14.24.28314\\include\\vcruntime.h"



    
        
    



#line 292 "C:\\Program Files (x86)\\Microsoft Visual Studio\\2019\\Community\\VC\\Tools\\MSVC\\14.24.28314\\include\\vcruntime.h"
#line 293 "C:\\Program Files (x86)\\Microsoft Visual Studio\\2019\\Community\\VC\\Tools\\MSVC\\14.24.28314\\include\\vcruntime.h"



#line 297 "C:\\Program Files (x86)\\Microsoft Visual Studio\\2019\\Community\\VC\\Tools\\MSVC\\14.24.28314\\include\\vcruntime.h"
    
#line 299 "C:\\Program Files (x86)\\Microsoft Visual Studio\\2019\\Community\\VC\\Tools\\MSVC\\14.24.28314\\include\\vcruntime.h"






#line 306 "C:\\Program Files (x86)\\Microsoft Visual Studio\\2019\\Community\\VC\\Tools\\MSVC\\14.24.28314\\include\\vcruntime.h"


    
        
    





#line 317 "C:\\Program Files (x86)\\Microsoft Visual Studio\\2019\\Community\\VC\\Tools\\MSVC\\14.24.28314\\include\\vcruntime.h"
#line 318 "C:\\Program Files (x86)\\Microsoft Visual Studio\\2019\\Community\\VC\\Tools\\MSVC\\14.24.28314\\include\\vcruntime.h"



#line 322 "C:\\Program Files (x86)\\Microsoft Visual Studio\\2019\\Community\\VC\\Tools\\MSVC\\14.24.28314\\include\\vcruntime.h"


    
        
    


#line 330 "C:\\Program Files (x86)\\Microsoft Visual Studio\\2019\\Community\\VC\\Tools\\MSVC\\14.24.28314\\include\\vcruntime.h"
#line 331 "C:\\Program Files (x86)\\Microsoft Visual Studio\\2019\\Community\\VC\\Tools\\MSVC\\14.24.28314\\include\\vcruntime.h"


    void __cdecl __security_init_cookie(void);

    
        void __fastcall __security_check_cookie(  uintptr_t _StackCookie);
        __declspec(noreturn) void __cdecl __report_gsfailure(void);
    


#line 342 "C:\\Program Files (x86)\\Microsoft Visual Studio\\2019\\Community\\VC\\Tools\\MSVC\\14.24.28314\\include\\vcruntime.h"
#line 343 "C:\\Program Files (x86)\\Microsoft Visual Studio\\2019\\Community\\VC\\Tools\\MSVC\\14.24.28314\\include\\vcruntime.h"

extern uintptr_t __security_cookie;


    
    
    
#line 351 "C:\\Program Files (x86)\\Microsoft Visual Studio\\2019\\Community\\VC\\Tools\\MSVC\\14.24.28314\\include\\vcruntime.h"

__pragma(pack(pop))

#line 355 "C:\\Program Files (x86)\\Microsoft Visual Studio\\2019\\Community\\VC\\Tools\\MSVC\\14.24.28314\\include\\vcruntime.h"
#line 11 "C:\\Program Files (x86)\\Windows Kits\\10\\include\\10.0.18362.0\\ucrt\\corecrt.h"

__pragma(pack(push, 8))









    

#line 25 "C:\\Program Files (x86)\\Windows Kits\\10\\include\\10.0.18362.0\\ucrt\\corecrt.h"
        
    

#line 29 "C:\\Program Files (x86)\\Windows Kits\\10\\include\\10.0.18362.0\\ucrt\\corecrt.h"
#line 30 "C:\\Program Files (x86)\\Windows Kits\\10\\include\\10.0.18362.0\\ucrt\\corecrt.h"




    
#line 36 "C:\\Program Files (x86)\\Windows Kits\\10\\include\\10.0.18362.0\\ucrt\\corecrt.h"


    

#line 41 "C:\\Program Files (x86)\\Windows Kits\\10\\include\\10.0.18362.0\\ucrt\\corecrt.h"
        
    

#line 45 "C:\\Program Files (x86)\\Windows Kits\\10\\include\\10.0.18362.0\\ucrt\\corecrt.h"
#line 46 "C:\\Program Files (x86)\\Windows Kits\\10\\include\\10.0.18362.0\\ucrt\\corecrt.h"



#line 50 "C:\\Program Files (x86)\\Windows Kits\\10\\include\\10.0.18362.0\\ucrt\\corecrt.h"
    
#line 52 "C:\\Program Files (x86)\\Windows Kits\\10\\include\\10.0.18362.0\\ucrt\\corecrt.h"


    


#line 58 "C:\\Program Files (x86)\\Windows Kits\\10\\include\\10.0.18362.0\\ucrt\\corecrt.h"





#line 64 "C:\\Program Files (x86)\\Windows Kits\\10\\include\\10.0.18362.0\\ucrt\\corecrt.h"
    
#line 66 "C:\\Program Files (x86)\\Windows Kits\\10\\include\\10.0.18362.0\\ucrt\\corecrt.h"





    
#line 73 "C:\\Program Files (x86)\\Windows Kits\\10\\include\\10.0.18362.0\\ucrt\\corecrt.h"



#line 77 "C:\\Program Files (x86)\\Windows Kits\\10\\include\\10.0.18362.0\\ucrt\\corecrt.h"
    
#line 79 "C:\\Program Files (x86)\\Windows Kits\\10\\include\\10.0.18362.0\\ucrt\\corecrt.h"









    
#line 90 "C:\\Program Files (x86)\\Windows Kits\\10\\include\\10.0.18362.0\\ucrt\\corecrt.h"













    


        
    #line 108 "C:\\Program Files (x86)\\Windows Kits\\10\\include\\10.0.18362.0\\ucrt\\corecrt.h"
#line 109 "C:\\Program Files (x86)\\Windows Kits\\10\\include\\10.0.18362.0\\ucrt\\corecrt.h"



#line 113 "C:\\Program Files (x86)\\Windows Kits\\10\\include\\10.0.18362.0\\ucrt\\corecrt.h"
    
#line 115 "C:\\Program Files (x86)\\Windows Kits\\10\\include\\10.0.18362.0\\ucrt\\corecrt.h"



#line 119 "C:\\Program Files (x86)\\Windows Kits\\10\\include\\10.0.18362.0\\ucrt\\corecrt.h"
    
#line 121 "C:\\Program Files (x86)\\Windows Kits\\10\\include\\10.0.18362.0\\ucrt\\corecrt.h"



#line 125 "C:\\Program Files (x86)\\Windows Kits\\10\\include\\10.0.18362.0\\ucrt\\corecrt.h"
    
#line 127 "C:\\Program Files (x86)\\Windows Kits\\10\\include\\10.0.18362.0\\ucrt\\corecrt.h"
























#line 152 "C:\\Program Files (x86)\\Windows Kits\\10\\include\\10.0.18362.0\\ucrt\\corecrt.h"



#line 156 "C:\\Program Files (x86)\\Windows Kits\\10\\include\\10.0.18362.0\\ucrt\\corecrt.h"
    typedef _Bool __crt_bool;
#line 158 "C:\\Program Files (x86)\\Windows Kits\\10\\include\\10.0.18362.0\\ucrt\\corecrt.h"










    
#line 170 "C:\\Program Files (x86)\\Windows Kits\\10\\include\\10.0.18362.0\\ucrt\\corecrt.h"



















    

#line 192 "C:\\Program Files (x86)\\Windows Kits\\10\\include\\10.0.18362.0\\ucrt\\corecrt.h"
        
    #line 194 "C:\\Program Files (x86)\\Windows Kits\\10\\include\\10.0.18362.0\\ucrt\\corecrt.h"
#line 195 "C:\\Program Files (x86)\\Windows Kits\\10\\include\\10.0.18362.0\\ucrt\\corecrt.h"



#line 199 "C:\\Program Files (x86)\\Windows Kits\\10\\include\\10.0.18362.0\\ucrt\\corecrt.h"


    
#line 203 "C:\\Program Files (x86)\\Windows Kits\\10\\include\\10.0.18362.0\\ucrt\\corecrt.h"


 






  

#line 215 "C:\\Program Files (x86)\\Windows Kits\\10\\include\\10.0.18362.0\\ucrt\\corecrt.h"
   
  #line 217 "C:\\Program Files (x86)\\Windows Kits\\10\\include\\10.0.18362.0\\ucrt\\corecrt.h"
 #line 218 "C:\\Program Files (x86)\\Windows Kits\\10\\include\\10.0.18362.0\\ucrt\\corecrt.h"
#line 219 "C:\\Program Files (x86)\\Windows Kits\\10\\include\\10.0.18362.0\\ucrt\\corecrt.h"







    











        
    #line 240 "C:\\Program Files (x86)\\Windows Kits\\10\\include\\10.0.18362.0\\ucrt\\corecrt.h"
#line 241 "C:\\Program Files (x86)\\Windows Kits\\10\\include\\10.0.18362.0\\ucrt\\corecrt.h"


    
#line 245 "C:\\Program Files (x86)\\Windows Kits\\10\\include\\10.0.18362.0\\ucrt\\corecrt.h"


    
        
    

#line 252 "C:\\Program Files (x86)\\Windows Kits\\10\\include\\10.0.18362.0\\ucrt\\corecrt.h"
#line 253 "C:\\Program Files (x86)\\Windows Kits\\10\\include\\10.0.18362.0\\ucrt\\corecrt.h"

























__declspec(dllimport) void __cdecl _invalid_parameter_noinfo(void);
__declspec(dllimport) __declspec(noreturn) void __cdecl _invalid_parameter_noinfo_noreturn(void);

__declspec(noreturn)
__declspec(dllimport) void __cdecl _invoke_watson(
      wchar_t const* _Expression,
      wchar_t const* _FunctionName,
      wchar_t const* _FileName,
            unsigned int _LineNo,
            uintptr_t _Reserved);


    



        
        
        
        
        
        
        
        
        
        
        
        

    #line 308 "C:\\Program Files (x86)\\Windows Kits\\10\\include\\10.0.18362.0\\ucrt\\corecrt.h"
#line 309 "C:\\Program Files (x86)\\Windows Kits\\10\\include\\10.0.18362.0\\ucrt\\corecrt.h"












    


#line 326 "C:\\Program Files (x86)\\Windows Kits\\10\\include\\10.0.18362.0\\ucrt\\corecrt.h"


    
#line 330 "C:\\Program Files (x86)\\Windows Kits\\10\\include\\10.0.18362.0\\ucrt\\corecrt.h"


    
        
    



#line 339 "C:\\Program Files (x86)\\Windows Kits\\10\\include\\10.0.18362.0\\ucrt\\corecrt.h"
#line 340 "C:\\Program Files (x86)\\Windows Kits\\10\\include\\10.0.18362.0\\ucrt\\corecrt.h"









    






        
    #line 358 "C:\\Program Files (x86)\\Windows Kits\\10\\include\\10.0.18362.0\\ucrt\\corecrt.h"
#line 359 "C:\\Program Files (x86)\\Windows Kits\\10\\include\\10.0.18362.0\\ucrt\\corecrt.h"


    


        
    #line 366 "C:\\Program Files (x86)\\Windows Kits\\10\\include\\10.0.18362.0\\ucrt\\corecrt.h"
#line 367 "C:\\Program Files (x86)\\Windows Kits\\10\\include\\10.0.18362.0\\ucrt\\corecrt.h"



#line 371 "C:\\Program Files (x86)\\Windows Kits\\10\\include\\10.0.18362.0\\ucrt\\corecrt.h"













#line 385 "C:\\Program Files (x86)\\Windows Kits\\10\\include\\10.0.18362.0\\ucrt\\corecrt.h"















#line 401 "C:\\Program Files (x86)\\Windows Kits\\10\\include\\10.0.18362.0\\ucrt\\corecrt.h"





    
#line 408 "C:\\Program Files (x86)\\Windows Kits\\10\\include\\10.0.18362.0\\ucrt\\corecrt.h"



#line 412 "C:\\Program Files (x86)\\Windows Kits\\10\\include\\10.0.18362.0\\ucrt\\corecrt.h"


    

#line 417 "C:\\Program Files (x86)\\Windows Kits\\10\\include\\10.0.18362.0\\ucrt\\corecrt.h"
#line 418 "C:\\Program Files (x86)\\Windows Kits\\10\\include\\10.0.18362.0\\ucrt\\corecrt.h"


    


        


            
        #line 428 "C:\\Program Files (x86)\\Windows Kits\\10\\include\\10.0.18362.0\\ucrt\\corecrt.h"
    #line 429 "C:\\Program Files (x86)\\Windows Kits\\10\\include\\10.0.18362.0\\ucrt\\corecrt.h"
#line 430 "C:\\Program Files (x86)\\Windows Kits\\10\\include\\10.0.18362.0\\ucrt\\corecrt.h"



#line 434 "C:\\Program Files (x86)\\Windows Kits\\10\\include\\10.0.18362.0\\ucrt\\corecrt.h"





#line 440 "C:\\Program Files (x86)\\Windows Kits\\10\\include\\10.0.18362.0\\ucrt\\corecrt.h"


    


        



    #line 450 "C:\\Program Files (x86)\\Windows Kits\\10\\include\\10.0.18362.0\\ucrt\\corecrt.h"
#line 451 "C:\\Program Files (x86)\\Windows Kits\\10\\include\\10.0.18362.0\\ucrt\\corecrt.h"


    
        
    



#line 460 "C:\\Program Files (x86)\\Windows Kits\\10\\include\\10.0.18362.0\\ucrt\\corecrt.h"

    
        
        
        
    



#line 470 "C:\\Program Files (x86)\\Windows Kits\\10\\include\\10.0.18362.0\\ucrt\\corecrt.h"

    
        
              
        

#line 477 "C:\\Program Files (x86)\\Windows Kits\\10\\include\\10.0.18362.0\\ucrt\\corecrt.h"
    



#line 482 "C:\\Program Files (x86)\\Windows Kits\\10\\include\\10.0.18362.0\\ucrt\\corecrt.h"

    
        
    



#line 490 "C:\\Program Files (x86)\\Windows Kits\\10\\include\\10.0.18362.0\\ucrt\\corecrt.h"

    
        
    



#line 498 "C:\\Program Files (x86)\\Windows Kits\\10\\include\\10.0.18362.0\\ucrt\\corecrt.h"
#line 499 "C:\\Program Files (x86)\\Windows Kits\\10\\include\\10.0.18362.0\\ucrt\\corecrt.h"


    
#line 503 "C:\\Program Files (x86)\\Windows Kits\\10\\include\\10.0.18362.0\\ucrt\\corecrt.h"








typedef int                           errno_t;
typedef unsigned short                wint_t;
typedef unsigned short                wctype_t;
typedef long                          __time32_t;
typedef __int64                       __time64_t;

typedef struct __crt_locale_data_public
{
      unsigned short const* _locale_pctype;
      int _locale_mb_cur_max;
               unsigned int _locale_lc_codepage;
} __crt_locale_data_public;

typedef struct __crt_locale_pointers
{
    struct __crt_locale_data*    locinfo;
    struct __crt_multibyte_data* mbcinfo;
} __crt_locale_pointers;

typedef __crt_locale_pointers* _locale_t;

typedef struct _Mbstatet
{ 
    unsigned long _Wchar;
    unsigned short _Byte, _State;
} _Mbstatet;

typedef _Mbstatet mbstate_t;



#line 543 "C:\\Program Files (x86)\\Windows Kits\\10\\include\\10.0.18362.0\\ucrt\\corecrt.h"



#line 547 "C:\\Program Files (x86)\\Windows Kits\\10\\include\\10.0.18362.0\\ucrt\\corecrt.h"


    


        typedef __time64_t time_t;
    #line 554 "C:\\Program Files (x86)\\Windows Kits\\10\\include\\10.0.18362.0\\ucrt\\corecrt.h"
#line 555 "C:\\Program Files (x86)\\Windows Kits\\10\\include\\10.0.18362.0\\ucrt\\corecrt.h"



    
#line 560 "C:\\Program Files (x86)\\Windows Kits\\10\\include\\10.0.18362.0\\ucrt\\corecrt.h"


    typedef size_t rsize_t;
#line 564 "C:\\Program Files (x86)\\Windows Kits\\10\\include\\10.0.18362.0\\ucrt\\corecrt.h"










    





















































































































































#line 725 "C:\\Program Files (x86)\\Windows Kits\\10\\include\\10.0.18362.0\\ucrt\\corecrt.h"

        
        
        
        
        
        
        
        
        
        
        
        

    #line 740 "C:\\Program Files (x86)\\Windows Kits\\10\\include\\10.0.18362.0\\ucrt\\corecrt.h"
#line 741 "C:\\Program Files (x86)\\Windows Kits\\10\\include\\10.0.18362.0\\ucrt\\corecrt.h"












































































    





































































































































































































































































































































































































































































































































































































































































































































































































































































































































































































































#line 1816 "C:\\Program Files (x86)\\Windows Kits\\10\\include\\10.0.18362.0\\ucrt\\corecrt.h"

        
        
        
        

        

            


            


            


            


            


            


            


            


            



            



            


            


            


            


            


            


            


            


            


            


            



            



            



            


            



            




            

            




            

            




            

            




            

            




            

            




            

            




            

            




            

        











































#line 2006 "C:\\Program Files (x86)\\Windows Kits\\10\\include\\10.0.18362.0\\ucrt\\corecrt.h"
    #line 2007 "C:\\Program Files (x86)\\Windows Kits\\10\\include\\10.0.18362.0\\ucrt\\corecrt.h"
#line 2008 "C:\\Program Files (x86)\\Windows Kits\\10\\include\\10.0.18362.0\\ucrt\\corecrt.h"



__pragma(pack(pop))
#line 13 "C:\\Program Files (x86)\\Windows Kits\\10\\include\\10.0.18362.0\\ucrt\\corecrt_math.h"

__pragma(pack(push, 8))

#pragma warning(push)
#pragma warning(disable:4738) 
#pragma warning(disable:4820) 




    
    
    struct _exception
    {
        int    type;   
        char*  name;   
        double arg1;   
        double arg2;   
        double retval; 
    };

    
    
    
        

        struct _complex
        {
            double x, y; 
        };

        
            
            
        #line 48 "C:\\Program Files (x86)\\Windows Kits\\10\\include\\10.0.18362.0\\ucrt\\corecrt_math.h"
    #line 49 "C:\\Program Files (x86)\\Windows Kits\\10\\include\\10.0.18362.0\\ucrt\\corecrt_math.h"
#line 50 "C:\\Program Files (x86)\\Windows Kits\\10\\include\\10.0.18362.0\\ucrt\\corecrt_math.h"










#line 61 "C:\\Program Files (x86)\\Windows Kits\\10\\include\\10.0.18362.0\\ucrt\\corecrt_math.h"
    typedef float  float_t;
    typedef double double_t;
#line 64 "C:\\Program Files (x86)\\Windows Kits\\10\\include\\10.0.18362.0\\ucrt\\corecrt_math.h"















    
        extern double const _HUGE;
    

#line 84 "C:\\Program Files (x86)\\Windows Kits\\10\\include\\10.0.18362.0\\ucrt\\corecrt_math.h"
#line 85 "C:\\Program Files (x86)\\Windows Kits\\10\\include\\10.0.18362.0\\ucrt\\corecrt_math.h"


    
#line 89 "C:\\Program Files (x86)\\Windows Kits\\10\\include\\10.0.18362.0\\ucrt\\corecrt_math.h"


















































































void __cdecl _fperrraise(  int _Except);

  __declspec(dllimport) short __cdecl _dclass(  double _X);
  __declspec(dllimport) short __cdecl _ldclass(  long double _X);
  __declspec(dllimport) short __cdecl _fdclass(  float _X);

  __declspec(dllimport) int __cdecl _dsign(  double _X);
  __declspec(dllimport) int __cdecl _ldsign(  long double _X);
  __declspec(dllimport) int __cdecl _fdsign(  float _X);

  __declspec(dllimport) int __cdecl _dpcomp(  double _X,   double _Y);
  __declspec(dllimport) int __cdecl _ldpcomp(  long double _X,   long double _Y);
  __declspec(dllimport) int __cdecl _fdpcomp(  float _X,   float _Y);

  __declspec(dllimport) short __cdecl _dtest(  double* _Px);
  __declspec(dllimport) short __cdecl _ldtest(  long double* _Px);
  __declspec(dllimport) short __cdecl _fdtest(  float* _Px);

__declspec(dllimport) short __cdecl _d_int(  double* _Px,   short _Xexp);
__declspec(dllimport) short __cdecl _ld_int(  long double* _Px,   short _Xexp);
__declspec(dllimport) short __cdecl _fd_int(  float* _Px,   short _Xexp);

__declspec(dllimport) short __cdecl _dscale(  double* _Px,   long _Lexp);
__declspec(dllimport) short __cdecl _ldscale(  long double* _Px,   long _Lexp);
__declspec(dllimport) short __cdecl _fdscale(  float* _Px,   long _Lexp);

__declspec(dllimport) short __cdecl _dunscale(  short* _Pex,   double* _Px);
__declspec(dllimport) short __cdecl _ldunscale(  short* _Pex,   long double* _Px);
__declspec(dllimport) short __cdecl _fdunscale(  short* _Pex,   float* _Px);

  __declspec(dllimport) short __cdecl _dexp(  double* _Px,   double _Y,   long _Eoff);
  __declspec(dllimport) short __cdecl _ldexp(  long double* _Px,   long double _Y,   long _Eoff);
  __declspec(dllimport) short __cdecl _fdexp(  float* _Px,   float _Y,   long _Eoff);

  __declspec(dllimport) short __cdecl _dnorm(  unsigned short* _Ps);
  __declspec(dllimport) short __cdecl _fdnorm(  unsigned short* _Ps);

  __declspec(dllimport) double __cdecl _dpoly(  double _X,   double const* _Tab,   int _N);
  __declspec(dllimport) long double __cdecl _ldpoly(  long double _X,   long double const* _Tab,   int _N);
  __declspec(dllimport) float __cdecl _fdpoly(  float _X,   float const* _Tab,   int _N);

  __declspec(dllimport) double __cdecl _dlog(  double _X,   int _Baseflag);
  __declspec(dllimport) long double __cdecl _ldlog(  long double _X,   int _Baseflag);
  __declspec(dllimport) float __cdecl _fdlog(  float _X,   int _Baseflag);

  __declspec(dllimport) double __cdecl _dsin(  double _X,   unsigned int _Qoff);
  __declspec(dllimport) long double __cdecl _ldsin(  long double _X,   unsigned int _Qoff);
  __declspec(dllimport) float __cdecl _fdsin(  float _X,   unsigned int _Qoff);


typedef union
{   
    unsigned short _Sh[4];
    double _Val;
} _double_val;


typedef union
{   
    unsigned short _Sh[2];
    float _Val;
} _float_val;


typedef union
{   
    unsigned short _Sh[4];
    long double _Val;
} _ldouble_val;

typedef union
{   
    unsigned short _Word[4];
    float _Float;
    double _Double;
    long double _Long_double;
} _float_const;

extern const _float_const _Denorm_C,  _Inf_C,  _Nan_C,  _Snan_C, _Hugeval_C;
extern const _float_const _FDenorm_C, _FInf_C, _FNan_C, _FSnan_C;
extern const _float_const _LDenorm_C, _LInf_C, _LNan_C, _LSnan_C;

extern const _float_const _Eps_C,  _Rteps_C;
extern const _float_const _FEps_C, _FRteps_C;
extern const _float_const _LEps_C, _LRteps_C;

extern const double      _Zero_C,  _Xbig_C;
extern const float       _FZero_C, _FXbig_C;
extern const long double _LZero_C, _LXbig_C;







    
    
    

    
    

    
    
    
    
    

    
    
    
    
    
    














































































































































































#line 461 "C:\\Program Files (x86)\\Windows Kits\\10\\include\\10.0.18362.0\\ucrt\\corecrt_math.h"





      int       __cdecl abs(  int _X);
      long      __cdecl labs(  long _X);
      long long __cdecl llabs(  long long _X);

      double __cdecl acos(  double _X);
      double __cdecl asin(  double _X);
      double __cdecl atan(  double _X);
      double __cdecl atan2(  double _Y,   double _X);

      double __cdecl cos(  double _X);
      double __cdecl cosh(  double _X);
      double __cdecl exp(  double _X);
       double __cdecl fabs(  double _X);
      double __cdecl fmod(  double _X,   double _Y);
      double __cdecl log(  double _X);
      double __cdecl log10(  double _X);
      double __cdecl pow(  double _X,   double _Y);
      double __cdecl sin(  double _X);
      double __cdecl sinh(  double _X);
       double __cdecl sqrt(  double _X);
      double __cdecl tan(  double _X);
      double __cdecl tanh(  double _X);

      __declspec(dllimport) double    __cdecl acosh(  double _X);
      __declspec(dllimport) double    __cdecl asinh(  double _X);
      __declspec(dllimport) double    __cdecl atanh(  double _X);
      __declspec(dllimport)  double    __cdecl atof(  char const* _String);
      __declspec(dllimport)  double    __cdecl _atof_l(  char const* _String,   _locale_t _Locale);
      __declspec(dllimport) double    __cdecl _cabs(  struct _complex _Complex_value);
      __declspec(dllimport) double    __cdecl cbrt(  double _X);
      __declspec(dllimport) double    __cdecl ceil(  double _X);
      __declspec(dllimport) double    __cdecl _chgsign(  double _X);
      __declspec(dllimport) double    __cdecl copysign(  double _Number,   double _Sign);
      __declspec(dllimport) double    __cdecl _copysign(  double _Number,   double _Sign);
      __declspec(dllimport) double    __cdecl erf(  double _X);
      __declspec(dllimport) double    __cdecl erfc(  double _X);
      __declspec(dllimport) double    __cdecl exp2(  double _X);
      __declspec(dllimport) double    __cdecl expm1(  double _X);
      __declspec(dllimport) double    __cdecl fdim(  double _X,   double _Y);
      __declspec(dllimport) double    __cdecl floor(  double _X);
      __declspec(dllimport) double    __cdecl fma(  double _X,   double _Y,   double _Z);
      __declspec(dllimport) double    __cdecl fmax(  double _X,   double _Y);
      __declspec(dllimport) double    __cdecl fmin(  double _X,   double _Y);
      __declspec(dllimport) double    __cdecl frexp(  double _X,   int* _Y);
      __declspec(dllimport) double    __cdecl hypot(  double _X,   double _Y);
      __declspec(dllimport) double    __cdecl _hypot(  double _X,   double _Y);
      __declspec(dllimport) int       __cdecl ilogb(  double _X);
      __declspec(dllimport) double    __cdecl ldexp(  double _X,   int _Y);
      __declspec(dllimport) double    __cdecl lgamma(  double _X);
      __declspec(dllimport) long long __cdecl llrint(  double _X);
      __declspec(dllimport) long long __cdecl llround(  double _X);
      __declspec(dllimport) double    __cdecl log1p(  double _X);
      __declspec(dllimport) double    __cdecl log2(  double _X);
      __declspec(dllimport) double    __cdecl logb(  double _X);
      __declspec(dllimport) long      __cdecl lrint(  double _X);
      __declspec(dllimport) long      __cdecl lround(  double _X);

    int __cdecl _matherr(  struct _exception* _Except);

      __declspec(dllimport) double __cdecl modf(  double _X,   double* _Y);
      __declspec(dllimport) double __cdecl nan(  char const* _X);
      __declspec(dllimport) double __cdecl nearbyint(  double _X);
      __declspec(dllimport) double __cdecl nextafter(  double _X,   double _Y);
      __declspec(dllimport) double __cdecl nexttoward(  double _X,   long double _Y);
      __declspec(dllimport) double __cdecl remainder(  double _X,   double _Y);
      __declspec(dllimport) double __cdecl remquo(  double _X,   double _Y,   int* _Z);
      __declspec(dllimport) double __cdecl rint(  double _X);
      __declspec(dllimport) double __cdecl round(  double _X);
      __declspec(dllimport) double __cdecl scalbln(  double _X,   long _Y);
      __declspec(dllimport) double __cdecl scalbn(  double _X,   int _Y);
      __declspec(dllimport) double __cdecl tgamma(  double _X);
      __declspec(dllimport) double __cdecl trunc(  double _X);
      __declspec(dllimport) double __cdecl _j0(  double _X );
      __declspec(dllimport) double __cdecl _j1(  double _X );
      __declspec(dllimport) double __cdecl _jn(int _X,   double _Y);
      __declspec(dllimport) double __cdecl _y0(  double _X);
      __declspec(dllimport) double __cdecl _y1(  double _X);
      __declspec(dllimport) double __cdecl _yn(  int _X,   double _Y);

      __declspec(dllimport) float     __cdecl acoshf(  float _X);
      __declspec(dllimport) float     __cdecl asinhf(  float _X);
      __declspec(dllimport) float     __cdecl atanhf(  float _X);
      __declspec(dllimport) float     __cdecl cbrtf(  float _X);
      __declspec(dllimport) float     __cdecl _chgsignf(  float _X);
      __declspec(dllimport) float     __cdecl copysignf(  float _Number,   float _Sign);
      __declspec(dllimport) float     __cdecl _copysignf(  float _Number,   float _Sign);
      __declspec(dllimport) float     __cdecl erff(  float _X);
      __declspec(dllimport) float     __cdecl erfcf(  float _X);
      __declspec(dllimport) float     __cdecl expm1f(  float _X);
      __declspec(dllimport) float     __cdecl exp2f(  float _X);
      __declspec(dllimport) float     __cdecl fdimf(  float _X,   float _Y);
      __declspec(dllimport) float     __cdecl fmaf(  float _X,   float _Y,   float _Z);
      __declspec(dllimport) float     __cdecl fmaxf(  float _X,   float _Y);
      __declspec(dllimport) float     __cdecl fminf(  float _X,   float _Y);
      __declspec(dllimport) float     __cdecl _hypotf(  float _X,   float _Y);
      __declspec(dllimport) int       __cdecl ilogbf(  float _X);
      __declspec(dllimport) float     __cdecl lgammaf(  float _X);
      __declspec(dllimport) long long __cdecl llrintf(  float _X);
      __declspec(dllimport) long long __cdecl llroundf(  float _X);
      __declspec(dllimport) float     __cdecl log1pf(  float _X);
      __declspec(dllimport) float     __cdecl log2f(  float _X);
      __declspec(dllimport) float     __cdecl logbf(  float _X);
      __declspec(dllimport) long      __cdecl lrintf(  float _X);
      __declspec(dllimport) long      __cdecl lroundf(  float _X);
      __declspec(dllimport) float     __cdecl nanf(  char const* _X);
      __declspec(dllimport) float     __cdecl nearbyintf(  float _X);
      __declspec(dllimport) float     __cdecl nextafterf(  float _X,   float _Y);
      __declspec(dllimport) float     __cdecl nexttowardf(  float _X,   long double _Y);
      __declspec(dllimport) float     __cdecl remainderf(  float _X,   float _Y);
      __declspec(dllimport) float     __cdecl remquof(  float _X,   float _Y,   int* _Z);
      __declspec(dllimport) float     __cdecl rintf(  float _X);
      __declspec(dllimport) float     __cdecl roundf(  float _X);
      __declspec(dllimport) float     __cdecl scalblnf(  float _X,   long _Y);
      __declspec(dllimport) float     __cdecl scalbnf(  float _X,   int _Y);
      __declspec(dllimport) float     __cdecl tgammaf(  float _X);
      __declspec(dllimport) float     __cdecl truncf(  float _X);

    

          __declspec(dllimport) int  __cdecl _set_SSE2_enable(  int _Flag);

    #line 588 "C:\\Program Files (x86)\\Windows Kits\\10\\include\\10.0.18362.0\\ucrt\\corecrt_math.h"

    










#line 601 "C:\\Program Files (x86)\\Windows Kits\\10\\include\\10.0.18362.0\\ucrt\\corecrt_math.h"




#line 606 "C:\\Program Files (x86)\\Windows Kits\\10\\include\\10.0.18362.0\\ucrt\\corecrt_math.h"



    










#line 621 "C:\\Program Files (x86)\\Windows Kits\\10\\include\\10.0.18362.0\\ucrt\\corecrt_math.h"

          __inline float __cdecl acosf(  float _X)
        {
            return (float)acos(_X);
        }

          __inline float __cdecl asinf(  float _X)
        {
            return (float)asin(_X);
        }

          __inline float __cdecl atan2f(  float _Y,   float _X)
        {
            return (float)atan2(_Y, _X);
        }

          __inline float __cdecl atanf(  float _X)
        {
            return (float)atan(_X);
        }

          __inline float __cdecl ceilf(  float _X)
        {
            return (float)ceil(_X);
        }

          __inline float __cdecl cosf(  float _X)
        {
            return (float)cos(_X);
        }

          __inline float __cdecl coshf(  float _X)
        {
            return (float)cosh(_X);
        }

          __inline float __cdecl expf(  float _X)
        {
            return (float)exp(_X);
        }

    #line 663 "C:\\Program Files (x86)\\Windows Kits\\10\\include\\10.0.18362.0\\ucrt\\corecrt_math.h"

    



#line 669 "C:\\Program Files (x86)\\Windows Kits\\10\\include\\10.0.18362.0\\ucrt\\corecrt_math.h"

          __inline float __cdecl fabsf(  float _X)
        {
            return (float)fabs(_X);
        }

    #line 676 "C:\\Program Files (x86)\\Windows Kits\\10\\include\\10.0.18362.0\\ucrt\\corecrt_math.h"

    




#line 683 "C:\\Program Files (x86)\\Windows Kits\\10\\include\\10.0.18362.0\\ucrt\\corecrt_math.h"

          __inline float __cdecl floorf(  float _X)
        {
            return (float)floor(_X);
        }

          __inline float __cdecl fmodf(  float _X,   float _Y)
        {
            return (float)fmod(_X, _Y);
        }

    #line 695 "C:\\Program Files (x86)\\Windows Kits\\10\\include\\10.0.18362.0\\ucrt\\corecrt_math.h"

      __inline float __cdecl frexpf(  float _X,   int *_Y)
    {
        return (float)frexp(_X, _Y);
    }

      __inline float __cdecl hypotf(  float _X,   float _Y)
    {
        return _hypotf(_X, _Y);
    }

      __inline float __cdecl ldexpf(  float _X,   int _Y)
    {
        return (float)ldexp(_X, _Y);
    }

    











#line 724 "C:\\Program Files (x86)\\Windows Kits\\10\\include\\10.0.18362.0\\ucrt\\corecrt_math.h"

          __inline float __cdecl log10f(  float _X)
        {
            return (float)log10(_X);
        }

          __inline float __cdecl logf(  float _X)
        {
            return (float)log(_X);
        }

          __inline float __cdecl modff(  float _X,   float* _Y)
        {
            double _F, _I;
            _F = modf(_X, &_I);
            *_Y = (float)_I;
            return (float)_F;
        }

          __inline float __cdecl powf(  float _X,   float _Y)
        {
            return (float)pow(_X, _Y);
        }

          __inline float __cdecl sinf(  float _X)
        {
            return (float)sin(_X);
        }

          __inline float __cdecl sinhf(  float _X)
        {
            return (float)sinh(_X);
        }

          __inline float __cdecl sqrtf(  float _X)
        {
            return (float)sqrt(_X);
        }

          __inline float __cdecl tanf(  float _X)
        {
            return (float)tan(_X);
        }

          __inline float __cdecl tanhf(  float _X)
        {
            return (float)tanh(_X);
        }

    #line 774 "C:\\Program Files (x86)\\Windows Kits\\10\\include\\10.0.18362.0\\ucrt\\corecrt_math.h"

      __declspec(dllimport) long double __cdecl acoshl(  long double _X);

      __inline long double __cdecl acosl(  long double _X)
    {
        return acos((double)_X);
    }

      __declspec(dllimport) long double __cdecl asinhl(  long double _X);

      __inline long double __cdecl asinl(  long double _X)
    {
        return asin((double)_X);
    }

      __inline long double __cdecl atan2l(  long double _Y,   long double _X)
    {
        return atan2((double)_Y, (double)_X);
    }

      __declspec(dllimport) long double __cdecl atanhl(  long double _X);

      __inline long double __cdecl atanl(  long double _X)
    {
        return atan((double)_X);
    }

      __declspec(dllimport) long double __cdecl cbrtl(  long double _X);

      __inline long double __cdecl ceill(  long double _X)
    {
        return ceil((double)_X);
    }

      __inline long double __cdecl _chgsignl(  long double _X)
    {
        return _chgsign((double)_X);
    }

      __declspec(dllimport) long double __cdecl copysignl(  long double _Number,   long double _Sign);

      __inline long double __cdecl _copysignl(  long double _Number,   long double _Sign)
    {
        return _copysign((double)_Number, (double)_Sign);
    }

      __inline long double __cdecl coshl(  long double _X)
    {
        return cosh((double)_X);
    }

      __inline long double __cdecl cosl(  long double _X)
    {
        return cos((double)_X);
    }

      __declspec(dllimport) long double __cdecl erfl(  long double _X);
      __declspec(dllimport) long double __cdecl erfcl(  long double _X);

      __inline long double __cdecl expl(  long double _X)
    {
        return exp((double)_X);
    }

      __declspec(dllimport) long double __cdecl exp2l(  long double _X);
      __declspec(dllimport) long double __cdecl expm1l(  long double _X);

      __inline long double __cdecl fabsl(  long double _X)
    {
        return fabs((double)_X);
    }

      __declspec(dllimport) long double __cdecl fdiml(  long double _X,   long double _Y);

      __inline long double __cdecl floorl(  long double _X)
    {
        return floor((double)_X);
    }

      __declspec(dllimport) long double __cdecl fmal(  long double _X,   long double _Y,   long double _Z);
      __declspec(dllimport) long double __cdecl fmaxl(  long double _X,   long double _Y);
      __declspec(dllimport) long double __cdecl fminl(  long double _X,   long double _Y);

      __inline long double __cdecl fmodl(  long double _X,   long double _Y)
    {
        return fmod((double)_X, (double)_Y);
    }

      __inline long double __cdecl frexpl(  long double _X,   int *_Y)
    {
        return frexp((double)_X, _Y);
    }

      __declspec(dllimport) int __cdecl ilogbl(  long double _X);

      __inline long double __cdecl _hypotl(  long double _X,   long double _Y)
    {
        return _hypot((double)_X, (double)_Y);
    }

      __inline long double __cdecl hypotl(  long double _X,   long double _Y)
    {
        return _hypot((double)_X, (double)_Y);
    }

      __inline long double __cdecl ldexpl(  long double _X,   int _Y)
    {
        return ldexp((double)_X, _Y);
    }

      __declspec(dllimport) long double __cdecl lgammal(  long double _X);
      __declspec(dllimport) long long __cdecl llrintl(  long double _X);
      __declspec(dllimport) long long __cdecl llroundl(  long double _X);

      __inline long double __cdecl logl(  long double _X)
    {
        return log((double)_X);
    }

      __inline long double __cdecl log10l(  long double _X)
    {
        return log10((double)_X);
    }

      __declspec(dllimport) long double __cdecl log1pl(  long double _X);
      __declspec(dllimport) long double __cdecl log2l(  long double _X);
      __declspec(dllimport) long double __cdecl logbl(  long double _X);
      __declspec(dllimport) long __cdecl lrintl(  long double _X);
      __declspec(dllimport) long __cdecl lroundl(  long double _X);

      __inline long double __cdecl modfl(  long double _X,   long double* _Y)
    {
        double _F, _I;
        _F = modf((double)_X, &_I);
        *_Y = _I;
        return _F;
    }

      __declspec(dllimport) long double __cdecl nanl(  char const* _X);
      __declspec(dllimport) long double __cdecl nearbyintl(  long double _X);
      __declspec(dllimport) long double __cdecl nextafterl(  long double _X,   long double _Y);
      __declspec(dllimport) long double __cdecl nexttowardl(  long double _X,   long double _Y);

      __inline long double __cdecl powl(  long double _X,   long double _Y)
    {
        return pow((double)_X, (double)_Y);
    }

      __declspec(dllimport) long double __cdecl remainderl(  long double _X,   long double _Y);
      __declspec(dllimport) long double __cdecl remquol(  long double _X,   long double _Y,   int* _Z);
      __declspec(dllimport) long double __cdecl rintl(  long double _X);
      __declspec(dllimport) long double __cdecl roundl(  long double _X);
      __declspec(dllimport) long double __cdecl scalblnl(  long double _X,   long _Y);
      __declspec(dllimport) long double __cdecl scalbnl(  long double _X,   int _Y);

      __inline long double __cdecl sinhl(  long double _X)
    {
        return sinh((double)_X);
    }

      __inline long double __cdecl sinl(  long double _X)
    {
        return sin((double)_X);
    }

      __inline long double __cdecl sqrtl(  long double _X)
    {
        return sqrt((double)_X);
    }

      __inline long double __cdecl tanhl(  long double _X)
    {
        return tanh((double)_X);
    }

      __inline long double __cdecl tanl(  long double _X)
    {
        return tan((double)_X);
    }

      __declspec(dllimport) long double __cdecl tgammal(  long double _X);
      __declspec(dllimport) long double __cdecl truncl(  long double _X);

    
        
    #line 960 "C:\\Program Files (x86)\\Windows Kits\\10\\include\\10.0.18362.0\\ucrt\\corecrt_math.h"

#line 962 "C:\\Program Files (x86)\\Windows Kits\\10\\include\\10.0.18362.0\\ucrt\\corecrt_math.h"



    
    
    
    
    
    

    

    
        
            extern double HUGE;
        

#line 980 "C:\\Program Files (x86)\\Windows Kits\\10\\include\\10.0.18362.0\\ucrt\\corecrt_math.h"

           __declspec(dllimport) double __cdecl j0(  double _X);
           __declspec(dllimport) double __cdecl j1(  double _X);
           __declspec(dllimport) double __cdecl jn(  int _X,   double _Y);
           __declspec(dllimport) double __cdecl y0(  double _X);
           __declspec(dllimport) double __cdecl y1(  double _X);
           __declspec(dllimport) double __cdecl yn(  int _X,   double _Y);
    #line 988 "C:\\Program Files (x86)\\Windows Kits\\10\\include\\10.0.18362.0\\ucrt\\corecrt_math.h"

#line 990 "C:\\Program Files (x86)\\Windows Kits\\10\\include\\10.0.18362.0\\ucrt\\corecrt_math.h"


#pragma warning(pop)

__pragma(pack(pop))
#line 996 "C:\\Program Files (x86)\\Windows Kits\\10\\include\\10.0.18362.0\\ucrt\\corecrt_math.h"
#line 12 "C:\\Program Files (x86)\\Windows Kits\\10\\include\\10.0.18362.0\\ucrt\\math.h"




#line 5 "E:/neovim-CSE2410/src/nvim/math.c"

#line 1 "E:\\neovim-CSE2410\\src\\nvim/math.h"






#line 8 "E:\\neovim-CSE2410\\src\\nvim/math.h"
#line 7 "E:/neovim-CSE2410/src/nvim/math.c"










#line 18 "E:/neovim-CSE2410/src/nvim/math.c"
int xfpclassify(double d)
{



#line 24 "E:/neovim-CSE2410/src/nvim/math.c"
  return ((__pragma(warning(suppress:6334))(sizeof ((d) + (float)0) == sizeof (float) ? 'f' : sizeof ((d) + (double)0) == sizeof (double) ? 'd' : 'l') == 'f' ? _fdclass((float)(d)) : __pragma(warning(suppress:6334))(sizeof ((d) + (float)0) == sizeof (float) ? 'f' : sizeof ((d) + (double)0) == sizeof (double) ? 'd' : 'l') == 'd' ? _dclass((double)(d)) : _ldclass((long double)(d))));
#line 26 "E:/neovim-CSE2410/src/nvim/math.c"
}
int xisinf(double d)
{
  return (((__pragma(warning(suppress:6334))(sizeof ((d) + (float)0) == sizeof (float) ? 'f' : sizeof ((d) + (double)0) == sizeof (double) ? 'd' : 'l') == 'f' ? _fdclass((float)(d)) : __pragma(warning(suppress:6334))(sizeof ((d) + (float)0) == sizeof (float) ? 'f' : sizeof ((d) + (double)0) == sizeof (double) ? 'd' : 'l') == 'd' ? _dclass((double)(d)) : _ldclass((long double)(d)))) == 1);
}
int xisnan(double d)
{



#line 37 "E:/neovim-CSE2410/src/nvim/math.c"
  return (((__pragma(warning(suppress:6334))(sizeof ((d) + (float)0) == sizeof (float) ? 'f' : sizeof ((d) + (double)0) == sizeof (double) ? 'd' : 'l') == 'f' ? _fdclass((float)(d)) : __pragma(warning(suppress:6334))(sizeof ((d) + (float)0) == sizeof (float) ? 'f' : sizeof ((d) + (double)0) == sizeof (double) ? 'd' : 'l') == 'd' ? _dclass((double)(d)) : _ldclass((long double)(d)))) == 2);
#line 39 "E:/neovim-CSE2410/src/nvim/math.c"
}


#line 43 "E:/neovim-CSE2410/src/nvim/math.c"
